…
``` r
# the above are the same, just different methods

# note that the below dplyr function gives you something different
# the output is a one-column dataframe as opposed to an atomic vector
select(iris, Sepal.Width)
```

    ## # A tibble: 150 x 1
    ##    Sepal.Width
    ##          <dbl>
    ##  1        3.50
    ##  2        3.00
    ##  3        3.20
    ##  4        3.10
    ##  5        3.60
    ##  6        3.90
    ##  7        3.40
    ##  8        3.40
    ##  9        2.90
    ## 10        3.10
    ## # ... with 140 more rows
…
