…
    });
</script>
on subsetting DFs
-----------------

Caroline asked how she would get JUST the 'flight' column in the flights data. For our purposes, I would recommend using dplyr code to do this.

``` r
select(flights, flight)
```

    ## # A tibble: 336,776 x 1
    ##    flight
    ##     <int>
    ##  1   1545
    ##  2   1714
    ##  3   1141
    ##  4    725
    ##  5    461
    ##  6   1696
    ##  7    507
    ##  8   5708
    ##  9     79
    ## 10    301
    ## # ... with 336,766 more rows
…
Functions that take dfs
-----------------------

What may be helpful to understand is that functions like `mutate`, `filter`, `select`, etc., are expecting dataframes as their first argument, so if you pass them vectors, they are going to fail.
*E.g. the following outputs a dataframe in the firstline and pipes this to the first argument in the second line so the code works:*

``` r
flights["flight"] %>% 
  select(flight)
```

    ## # A tibble: 336,776 x 1
    ##    flight
    ##     <int>
    ##  1   1545
    ##  2   1714
    ##  3   1141
    ##  4    725
    ##  5    461
    ##  6   1696
    ##  7    507
    ##  8   5708
    ##  9     79
    ## 10    301
    ## # ... with 336,766 more rows

The first line produces a one-columned dataframe. This is then piped into the second line that again selects the `flight` column giving the final output. This is also equivalent to the following:

``` r
select(flights, flight) %>% 
  select(flight)
```

    ## # A tibble: 336,776 x 1
    ##    flight
    ##     <int>
    ##  1   1545
    ##  2   1714
    ##  3   1141
    ##  4    725
    ##  5    461
    ##  6   1696
    ##  7    507
    ##  8   5708
    ##  9     79
    ## 10    301
    ## # ... with 336,766 more rows
…
`sum(mpg)` outputted a single value for all rows. If you had first done a `group_by` statement, you would have gotten a single value for every group.

You'll notice in the example below that the `...single_output` only has 3 unique values, each corresponding with the `cyl` varibale used in the `group_by` whereas the `...multiple_ouputs` values are the exact same as without the `group_by` as the `mpg + 7` function operates at the row level, so the grouping here doesn't affect the output[6].

``` r
mtcars %>% 
  group_by(cyl) %>%
  mutate(function_giving_single_output = sum(mpg),
         function_giving_multiple_outputs = mpg + 7)
```

    ## # A tibble: 32 x 13
    ## # Groups:   cyl [3]
    ##      mpg   cyl  disp    hp  drat    wt  qsec    vs    am  gear  carb
    ##    <dbl> <dbl> <dbl> <dbl> <dbl> <dbl> <dbl> <dbl> <dbl> <dbl> <dbl>
    ##  1  21.0    6.  160.  110.  3.90  2.62  16.5    0.    1.    4.    4.
    ##  2  21.0    6.  160.  110.  3.90  2.88  17.0    0.    1.    4.    4.
    ##  3  22.8    4.  108.   93.  3.85  2.32  18.6    1.    1.    4.    1.
    ##  4  21.4    6.  258.  110.  3.08  3.22  19.4    1.    0.    3.    1.
    ##  5  18.7    8.  360.  175.  3.15  3.44  17.0    0.    0.    3.    2.
    ##  6  18.1    6.  225.  105.  2.76  3.46  20.2    1.    0.    3.    1.
    ##  7  14.3    8.  360.  245.  3.21  3.57  15.8    0.    0.    3.    4.
    ##  8  24.4    4.  147.   62.  3.69  3.19  20.0    1.    0.    4.    2.
    ##  9  22.8    4.  141.   95.  3.92  3.15  22.9    1.    0.    4.    2.
    ## 10  19.2    6.  168.  123.  3.92  3.44  18.3    1.    0.    4.    4.
    ## # ... with 22 more rows, and 2 more variables:
    ## #   function_giving_single_output <dbl>,
    ## #   function_giving_multiple_outputs <dbl>
…
