…
```r
by_country2 <- by_country %>% 
  mutate(model = purrr::map(data, country_model))
```

Advantage with keeping things in the dataframe is that when you filter, or move things around, everything stays in sync, as do new summary values you might add.


```r
by_country2 %>% 
  arrange(continent, country)
```

```
## # A tibble: 142 x 4
##    country                  continent data              model   
##    <fct>                    <fct>     <list>            <list>  
##  1 Algeria                  Africa    <tibble [12 x 4]> <S3: lm>
##  2 Angola                   Africa    <tibble [12 x 4]> <S3: lm>
##  3 Benin                    Africa    <tibble [12 x 4]> <S3: lm>
##  4 Botswana                 Africa    <tibble [12 x 4]> <S3: lm>
##  5 Burkina Faso             Africa    <tibble [12 x 4]> <S3: lm>
##  6 Burundi                  Africa    <tibble [12 x 4]> <S3: lm>
##  7 Cameroon                 Africa    <tibble [12 x 4]> <S3: lm>
##  8 Central African Republic Africa    <tibble [12 x 4]> <S3: lm>
##  9 Chad                     Africa    <tibble [12 x 4]> <S3: lm>
## 10 Comoros                  Africa    <tibble [12 x 4]> <S3: lm>
## # ... with 132 more rows
```

```r
by_country2 %>% 
  mutate(summaries = purrr::map(model, summary)) %>% 
  mutate(r_squared = purrr::map2_dbl(model, data, rsquare))
```

```
## # A tibble: 142 x 6
##    country     continent data             model   summaries       r_squared
##    <fct>       <fct>     <list>           <list>  <list>              <dbl>
##  1 Afghanistan Asia      <tibble [12 x 4~ <S3: l~ <S3: summary.l~     0.948
##  2 Albania     Europe    <tibble [12 x 4~ <S3: l~ <S3: summary.l~     0.911
##  3 Algeria     Africa    <tibble [12 x 4~ <S3: l~ <S3: summary.l~     0.985
##  4 Angola      Africa    <tibble [12 x 4~ <S3: l~ <S3: summary.l~     0.888
##  5 Argentina   Americas  <tibble [12 x 4~ <S3: l~ <S3: summary.l~     0.996
##  6 Australia   Oceania   <tibble [12 x 4~ <S3: l~ <S3: summary.l~     0.980
##  7 Austria     Europe    <tibble [12 x 4~ <S3: l~ <S3: summary.l~     0.992
##  8 Bahrain     Asia      <tibble [12 x 4~ <S3: l~ <S3: summary.l~     0.967
##  9 Bangladesh  Asia      <tibble [12 x 4~ <S3: l~ <S3: summary.l~     0.989
## 10 Belgium     Europe    <tibble [12 x 4~ <S3: l~ <S3: summary.l~     0.995
## # ... with 132 more rows
```
…
```r
by_country3 <- by_country2 %>%
  mutate(resids = purrr::map2(data, model, add_residuals))
```


```r
resids <- by_country3 %>% 
  unnest(resids)

resids
```

```
## # A tibble: 1,704 x 7
##    country     continent  year lifeExp      pop gdpPercap   resid
##    <fct>       <fct>     <int>   <dbl>    <int>     <dbl>   <dbl>
##  1 Afghanistan Asia       1952    28.8  8425333      779. -1.11  
##  2 Afghanistan Asia       1957    30.3  9240934      821. -0.952 
##  3 Afghanistan Asia       1962    32.0 10267083      853. -0.664 
##  4 Afghanistan Asia       1967    34.0 11537966      836. -0.0172
##  5 Afghanistan Asia       1972    36.1 13079460      740.  0.674 
##  6 Afghanistan Asia       1977    38.4 14880372      786.  1.65  
##  7 Afghanistan Asia       1982    39.9 12881816      978.  1.69  
##  8 Afghanistan Asia       1987    40.8 13867957      852.  1.28  
##  9 Afghanistan Asia       1992    41.7 16317921      649.  0.754 
## 10 Afghanistan Asia       1997    41.8 22227415      635. -0.534 
## # ... with 1,694 more rows
```
…
## list-columns for sampling
say you want to sample all the flights on 50 days out of the year. List-cols can be helpful in generating a sample like this:

```r
flights %>% 
  mutate(create_date = make_date(year, month, day)) %>% 
  select(create_date, 5:8) %>% 
  group_by(create_date) %>% 
  nest() %>% 
  sample_n(50) %>% 
  unnest()
```

```
## # A tibble: 46,565 x 5
##    create_date sched_dep_time dep_delay arr_time sched_arr_time
##    <date>               <int>     <dbl>    <int>          <int>
##  1 2013-03-07            2359         8      508            438
##  2 2013-03-07            2245        83      128           2356
##  3 2013-03-07            1905       307      212           2114
##  4 2013-03-07            2046       208      126           2214
##  5 2013-03-07            2129       169      130           2231
##  6 2013-03-07            2250       107      159              5
##  7 2013-03-07            2358        73      556            438
##  8 2013-03-07            2251       179      302           2357
##  9 2013-03-07             500        -4      628            648
## 10 2013-03-07             515        -5      738            814
## # ... with 46,555 more rows
```
…
```r
flights_samp <- flights %>% 
  mutate(create_date = make_date(year, month, day)) %>% 
  distinct(create_date) %>% 
  sample_n(50)

flights %>% 
  mutate(create_date = make_date(year, month, day)) %>% 
  select(create_date, 5:8) %>% 
  semi_join(flights_samp, by = "create_date")
```

```
## # A tibble: 46,109 x 5
##    create_date sched_dep_time dep_delay arr_time sched_arr_time
##    <date>               <int>     <dbl>    <int>          <int>
##  1 2013-01-07            2359        50      531            444
##  2 2013-01-07             500        -6      637            648
##  3 2013-01-07             525        -2      758            820
##  4 2013-01-07             540        -9      827            850
##  5 2013-01-07             540        -4     1020           1017
##  6 2013-01-07             530        14      822            829
##  7 2013-01-07             600       -15      646            709
##  8 2013-01-07             600        -8      843            904
##  9 2013-01-07             600        -6      708            715
## 10 2013-01-07             600        -5      741            801
## # ... with 46,099 more rows
```
…
