…
    1.  `ggplot2::diamonds`: needs surrogate
    
    
    ```r
    diamonds %>% 
      count(x, y, z, depth, table, carat, cut, color, price, clarity ) %>% 
      filter(n > 1)
    ```
    
    ```
    ## # A tibble: 143 x 11
    ##        x     y     z depth table carat cut       color price clarity     n
    ##    <dbl> <dbl> <dbl> <dbl> <dbl> <dbl> <ord>     <ord> <int> <ord>   <int>
    ##  1  0     0     0     64.1    60  0.71 Good      F      2130 SI2         2
    ##  2  4.23  4.26  2.69  63.4    57  0.3  Good      J       394 VS1         2
    ##  3  4.26  4.23  2.69  63.4    57  0.3  Very Good J       506 VS1         2
    ##  4  4.26  4.29  2.66  62.2    57  0.3  Ideal     H       450 SI1         2
    ##  5  4.27  4.28  2.66  62.2    57  0.3  Ideal     H       450 SI1         2
    ##  6  4.29  4.31  2.71  63      55  0.3  Very Good G       526 VS2         2
    ##  7  4.29  4.31  2.73  63.5    56  0.31 Good      D       571 SI1         2
    ##  8  4.31  4.28  2.67  62.2    58  0.3  Premium   D       709 SI1         2
    ##  9  4.31  4.29  2.71  63      55  0.3  Ideal     G       675 VS2         2
    ## 10  4.31  4.29  2.73  63.5    56  0.31 Very Good D       732 SI1         2
    ## # ... with 133 more rows
    ```
    
    ```r
    diamonds %>% 
      mutate(surrogate_id = row_number())
    ```
    
    ```
    ## # A tibble: 53,940 x 11
    ##    carat cut   color clarity depth table price     x     y     z
    ##    <dbl> <ord> <ord> <ord>   <dbl> <dbl> <int> <dbl> <dbl> <dbl>
    ##  1 0.23  Ideal E     SI2      61.5    55   326  3.95  3.98  2.43
    ##  2 0.21  Prem~ E     SI1      59.8    61   326  3.89  3.84  2.31
    ##  3 0.23  Good  E     VS1      56.9    65   327  4.05  4.07  2.31
    ##  4 0.290 Prem~ I     VS2      62.4    58   334  4.2   4.23  2.63
    ##  5 0.31  Good  J     SI2      63.3    58   335  4.34  4.35  2.75
    ##  6 0.24  Very~ J     VVS2     62.8    57   336  3.94  3.96  2.48
    ##  7 0.24  Very~ I     VVS1     62.3    57   336  3.95  3.98  2.47
    ##  8 0.26  Very~ H     SI1      61.9    55   337  4.07  4.11  2.53
    ##  9 0.22  Fair  E     VS2      65.1    61   337  3.87  3.78  2.49
    ## 10 0.23  Very~ H     VS1      59.4    61   338  4     4.05  2.39
    ## # ... with 53,930 more rows, and 1 more variable: surrogate_id <int>
    ```
…
1.  *Add the location of the origin _and_ destination (i.e. the `lat` and `lon`)*
    *to `flights`.*
    
    
    ```r
    flights %>% 
      left_join(airports, by = c("dest" = "faa")) %>% 
      left_join(airports, by = c("origin" = "faa"), suffix=c("_dest", "_origin")) %>%
      select(flight, carrier, dest, lat_dest, lon_dest, origin, lat_origin, lon_origin)
    ```
    
    ```
    ## # A tibble: 336,776 x 8
    ##    flight carrier dest  lat_dest lon_dest origin lat_origin lon_origin
    ##     <int> <chr>   <chr>    <dbl>    <dbl> <chr>       <dbl>      <dbl>
    ##  1   1545 UA      IAH       30.0    -95.3 EWR          40.7      -74.2
    ##  2   1714 UA      IAH       30.0    -95.3 LGA          40.8      -73.9
    ##  3   1141 AA      MIA       25.8    -80.3 JFK          40.6      -73.8
    ##  4    725 B6      BQN       NA       NA   JFK          40.6      -73.8
    ##  5    461 DL      ATL       33.6    -84.4 LGA          40.8      -73.9
    ##  6   1696 UA      ORD       42.0    -87.9 EWR          40.7      -74.2
    ##  7    507 B6      FLL       26.1    -80.2 EWR          40.7      -74.2
    ##  8   5708 EV      IAD       38.9    -77.5 LGA          40.8      -73.9
    ##  9     79 B6      MCO       28.4    -81.3 JFK          40.6      -73.8
    ## 10    301 AA      ORD       42.0    -87.9 LGA          40.8      -73.9
    ## # ... with 336,766 more rows
    ```
…
1.  *Filter flights to only show flights with planes that have flown at least 100*
    *flights.*
    
    
    ```r
    planes_many <- flights %>% 
      count(tailnum, sort=TRUE) %>% 
      filter(n > 100)
    
    semi_join(flights, planes_many)
    ```
    
    ```
    ## # A tibble: 229,202 x 19
    ##     year month   day dep_time sched_dep_time dep_delay arr_time
    ##    <int> <int> <int>    <int>          <int>     <dbl>    <int>
    ##  1  2013     1     1      517            515         2      830
    ##  2  2013     1     1      533            529         4      850
    ##  3  2013     1     1      544            545        -1     1004
    ##  4  2013     1     1      554            558        -4      740
    ##  5  2013     1     1      555            600        -5      913
    ##  6  2013     1     1      557            600        -3      709
    ##  7  2013     1     1      557            600        -3      838
    ##  8  2013     1     1      558            600        -2      849
    ##  9  2013     1     1      558            600        -2      853
    ## 10  2013     1     1      558            600        -2      923
    ## # ... with 229,192 more rows, and 12 more variables: sched_arr_time <int>,
    ## #   arr_delay <dbl>, carrier <chr>, flight <int>, tailnum <chr>,
    ## #   origin <chr>, dest <chr>, air_time <dbl>, distance <dbl>, hour <dbl>,
    ## #   minute <dbl>, time_hour <dttm>
    ```

1.  *Combine `fueleconomy::vehicles` and `fueleconomy::common` to find only the*
    *records for the most common models.*
    
    
    ```r
    fueleconomy::vehicles %>% 
      semi_join(fueleconomy::common, by=c("make", "model"))
    ```
    
    ```
    ## # A tibble: 14,531 x 12
    ##       id make  model   year class trans drive   cyl displ fuel    hwy   cty
    ##    <int> <chr> <chr>  <int> <chr> <chr> <chr> <int> <dbl> <chr> <int> <int>
    ##  1  1833 Acura Integ~  1986 Subc~ Auto~ Fron~     4   1.6 Regu~    28    22
    ##  2  1834 Acura Integ~  1986 Subc~ Manu~ Fron~     4   1.6 Regu~    28    23
    ##  3  3037 Acura Integ~  1987 Subc~ Auto~ Fron~     4   1.6 Regu~    28    22
    ##  4  3038 Acura Integ~  1987 Subc~ Manu~ Fron~     4   1.6 Regu~    28    23
    ##  5  4183 Acura Integ~  1988 Subc~ Auto~ Fron~     4   1.6 Regu~    27    22
    ##  6  4184 Acura Integ~  1988 Subc~ Manu~ Fron~     4   1.6 Regu~    28    23
    ##  7  5303 Acura Integ~  1989 Subc~ Auto~ Fron~     4   1.6 Regu~    27    22
    ##  8  5304 Acura Integ~  1989 Subc~ Manu~ Fron~     4   1.6 Regu~    28    23
    ##  9  6442 Acura Integ~  1990 Subc~ Auto~ Fron~     4   1.8 Regu~    24    20
    ## 10  6443 Acura Integ~  1990 Subc~ Manu~ Fron~     4   1.8 Regu~    26    21
    ## # ... with 14,521 more rows
    ```
…
    Below is code to show those 17 tailnums
    
    ```r
    flights %>% 
      distinct(carrier, tailnum) %>% 
      filter(!is.na(tailnum)) %>% 
      group_by(tailnum) %>% 
      mutate(n_tail = n()) %>%
      ungroup() %>% 
      filter(n_tail > 1) %>% 
      arrange(desc(n_tail), tailnum)
    ```
    
    ```
    ## # A tibble: 34 x 3
    ##    carrier tailnum n_tail
    ##    <chr>   <chr>    <int>
    ##  1 9E      N146PQ       2
    ##  2 EV      N146PQ       2
    ##  3 9E      N153PQ       2
    ##  4 EV      N153PQ       2
    ##  5 9E      N176PQ       2
    ##  6 EV      N176PQ       2
    ##  7 9E      N181PQ       2
    ##  8 EV      N181PQ       2
    ##  9 9E      N197PQ       2
    ## 10 EV      N197PQ       2
    ## # ... with 24 more rows
    ```
…
