Another set of solutions and notes to ‘R for Data Science’
…
32.2 list-columns for sampling

say you want to sample all the flights on 50 days out of the year. List-cols can be helpful in generating a sample like this:

flights %>% 
  mutate(create_date = make_date(year, month, day)) %>% 
  select(create_date, 5:8) %>% 
  group_by(create_date) %>% 
  nest() %>% 
  sample_n(50) %>% 
  unnest()

## # A tibble: 46,931 x 5
##    create_date sched_dep_time dep_delay arr_time sched_arr_time
##    <date>               <int>     <dbl>    <int>          <int>
##  1 2013-11-12             500        -5      639            651
##  2 2013-11-12             515         0      803            808
##  3 2013-11-12             545        -5      818            835
##  4 2013-11-12             545        -5      828            855
##  5 2013-11-12             600       -13      700            736
##  6 2013-11-12             600       -10      841            854
##  7 2013-11-12             600        -9      643            701
##  8 2013-11-12             600        -9      854            856
##  9 2013-11-12             600        -7      728            730
## 10 2013-11-12             600        -6      721            719
## # ... with 46,921 more rows

The alternative a join, e.g.

flights_samp <- flights %>% 
  mutate(create_date = make_date(year, month, day)) %>% 
  distinct(create_date) %>% 
  sample_n(50)

flights %>% 
  mutate(create_date = make_date(year, month, day)) %>% 
  select(create_date, 5:8) %>% 
  semi_join(flights_samp, by = "create_date")

## # A tibble: 45,211 x 5
##    create_date sched_dep_time dep_delay arr_time sched_arr_time
##    <date>               <int>     <dbl>    <int>          <int>
##  1 2013-01-03            2359        33      504            442
##  2 2013-01-03            2145       185      203           2311
##  3 2013-01-03            2359       156      700            437
##  4 2013-01-03             500        -2      650            650
##  5 2013-01-03             525        -5      830            820
##  6 2013-01-03             530         2      851            831
##  7 2013-01-03             540        -5      835            850
##  8 2013-01-03             545        -2     1009           1022
##  9 2013-01-03             600       -10      843            846
## 10 2013-01-03             600        -8      759            801
## # ... with 45,201 more rows
…
