Another set of solutions and notes to ‘R for Data Science’
…
63.2 list-columns for sampling

say you want to sample all the flights on 50 days out of the year. List-cols can be helpful in generating a sample like this:

flights %>% 
  mutate(create_date = make_date(year, month, day)) %>% 
  select(create_date, 5:8) %>% 
  group_by(create_date) %>% 
  nest() %>% 
  sample_n(50) %>% 
  unnest()

## # A tibble: 45,932 x 5
##    create_date sched_dep_time dep_delay arr_time sched_arr_time
##    <date>               <int>     <dbl>    <int>          <int>
##  1 2013-10-20             520        -3      754            803
##  2 2013-10-20             545        -3      922            933
##  3 2013-10-20             545        -2      843            855
##  4 2013-10-20             600       -11      703            716
##  5 2013-10-20             550         0      921            932
##  6 2013-10-20             600        -6      713            730
##  7 2013-10-20             600        -6      905            858
##  8 2013-10-20             600        -6      836            840
##  9 2013-10-20             600        -3      650            700
## 10 2013-10-20             600        -3      840            815
## # ... with 45,922 more rows

The alternative a join, e.g.

flights_samp <- flights %>% 
  mutate(create_date = make_date(year, month, day)) %>% 
  distinct(create_date) %>% 
  sample_n(50)

flights %>% 
  mutate(create_date = make_date(year, month, day)) %>% 
  select(create_date, 5:8) %>% 
  semi_join(flights_samp, by = "create_date")

## # A tibble: 46,865 x 5
##    create_date sched_dep_time dep_delay arr_time sched_arr_time
##    <date>               <int>     <dbl>    <int>          <int>
##  1 2013-01-19             500        -4      634            648
##  2 2013-01-19             530         5      859            829
##  3 2013-01-19             540        -2     1009           1017
##  4 2013-01-19             540        -1      842            850
##  5 2013-01-19             600        -5      824            837
##  6 2013-01-19             600        -5      819            815
##  7 2013-01-19             600        -4      903            910
##  8 2013-01-19             600        -3      749            759
##  9 2013-01-19             600        -3      749            759
## 10 2013-01-19             600        -3      904            904
## # ... with 46,855 more rows
…
