Another set of solutions and notes to ‘R for Data Science’
…
names_appended <- append_csvs(dir_examp)

## Parsed with column specification:
## cols(
##   year = col_double(),
##   sex = col_character(),
##   name = col_character(),
##   n = col_integer(),
##   prop = col_double(),
##   first_letter = col_character()
## )

names_appended

## # A tibble: 3,514 x 6
##     year sex   name      n   prop first_letter
##    <dbl> <chr> <chr> <int>  <dbl> <chr>       
##  1  1880 F     Anna   2604 0.0267 A           
##  2  1881 F     Anna   2698 0.0273 A           
##  3  1882 F     Anna   3143 0.0272 A           
##  4  1883 F     Anna   3306 0.0275 A           
##  5  1884 F     Anna   3860 0.0281 A           
##  6  1885 F     Anna   3994 0.0281 A           
##  7  1886 F     Anna   4283 0.0279 A           
##  8  1887 F     Anna   4227 0.0272 A           
##  9  1888 F     Anna   4982 0.0263 A           
## 10  1889 F     Anna   5062 0.0268 A           
## # ... with 3,504 more rows
…
