Another set of solutions to ‘R for Data Science’
…
1.2.flew to Houston IAH or HOU

filter(flights, dest %in% c("IAH","HOU"))

## # A tibble: 9,313 x 19
##     year month   day dep_time sched_dep_time dep_delay arr_time
##    <int> <int> <int>    <int>          <int>     <dbl>    <int>
##  1  2013     1     1      517            515         2      830
##  2  2013     1     1      533            529         4      850
##  3  2013     1     1      623            627        -4      933
##  4  2013     1     1      728            732        -4     1041
##  5  2013     1     1      739            739         0     1104
##  6  2013     1     1      908            908         0     1228
##  7  2013     1     1     1028           1026         2     1350
##  8  2013     1     1     1044           1045        -1     1352
##  9  2013     1     1     1114            900       134     1447
## 10  2013     1     1     1205           1200         5     1503
## # ... with 9,303 more rows, and 12 more variables: sched_arr_time <int>,
## #   arr_delay <dbl>, carrier <chr>, flight <int>, tailnum <chr>,
## #   origin <chr>, dest <chr>, air_time <dbl>, distance <dbl>, hour <dbl>,
## #   minute <dbl>, time_hour <dttm>

1.3.flew through American, United or Delta

filter(flights, carrier %in% c("UA", "AA","DL"))

## # A tibble: 139,504 x 19
##     year month   day dep_time sched_dep_time dep_delay arr_time
##    <int> <int> <int>    <int>          <int>     <dbl>    <int>
##  1  2013     1     1      517            515         2      830
##  2  2013     1     1      533            529         4      850
##  3  2013     1     1      542            540         2      923
##  4  2013     1     1      554            600        -6      812
##  5  2013     1     1      554            558        -4      740
##  6  2013     1     1      558            600        -2      753
##  7  2013     1     1      558            600        -2      924
##  8  2013     1     1      558            600        -2      923
##  9  2013     1     1      559            600        -1      941
## 10  2013     1     1      559            600        -1      854
## # ... with 139,494 more rows, and 12 more variables: sched_arr_time <int>,
## #   arr_delay <dbl>, carrier <chr>, flight <int>, tailnum <chr>,
## #   origin <chr>, dest <chr>, air_time <dbl>, distance <dbl>, hour <dbl>,
## #   minute <dbl>, time_hour <dttm>

1.4. Departed in Summer

filter(flights, month <= 8 & month >= 6)

## # A tibble: 86,995 x 19
##     year month   day dep_time sched_dep_time dep_delay arr_time
##    <int> <int> <int>    <int>          <int>     <dbl>    <int>
##  1  2013     6     1        2           2359         3      341
##  2  2013     6     1      451            500        -9      624
##  3  2013     6     1      506            515        -9      715
##  4  2013     6     1      534            545       -11      800
##  5  2013     6     1      538            545        -7      925
##  6  2013     6     1      539            540        -1      832
##  7  2013     6     1      546            600       -14      850
##  8  2013     6     1      551            600        -9      828
##  9  2013     6     1      552            600        -8      647
## 10  2013     6     1      553            600        -7      700
## # ... with 86,985 more rows, and 12 more variables: sched_arr_time <int>,
## #   arr_delay <dbl>, carrier <chr>, flight <int>, tailnum <chr>,
## #   origin <chr>, dest <chr>, air_time <dbl>, distance <dbl>, hour <dbl>,
## #   minute <dbl>, time_hour <dttm>

1.5. Arrived more than 2 hurs late, but didn’t leave late

filter(flights, arr_delay > 120, dep_delay >= 0)

## # A tibble: 10,008 x 19
##     year month   day dep_time sched_dep_time dep_delay arr_time
##    <int> <int> <int>    <int>          <int>     <dbl>    <int>
##  1  2013     1     1      811            630       101     1047
##  2  2013     1     1      848           1835       853     1001
##  3  2013     1     1      957            733       144     1056
##  4  2013     1     1     1114            900       134     1447
##  5  2013     1     1     1505           1310       115     1638
##  6  2013     1     1     1525           1340       105     1831
##  7  2013     1     1     1549           1445        64     1912
##  8  2013     1     1     1558           1359       119     1718
##  9  2013     1     1     1732           1630        62     2028
## 10  2013     1     1     1803           1620       103     2008
## # ... with 9,998 more rows, and 12 more variables: sched_arr_time <int>,
## #   arr_delay <dbl>, carrier <chr>, flight <int>, tailnum <chr>,
## #   origin <chr>, dest <chr>, air_time <dbl>, distance <dbl>, hour <dbl>,
## #   minute <dbl>, time_hour <dttm>

1.6. were delayed at least an hour, but made up over 30 mins in flight

filter(flights, (arr_delay-dep_delay)<=-30, dep_delay>=60)

## # A tibble: 2,074 x 19
##     year month   day dep_time sched_dep_time dep_delay arr_time
##    <int> <int> <int>    <int>          <int>     <dbl>    <int>
##  1  2013     1     1     1716           1545        91     2140
##  2  2013     1     1     2205           1720       285       46
##  3  2013     1     1     2326           2130       116      131
##  4  2013     1     3     1503           1221       162     1803
##  5  2013     1     3     1821           1530       171     2131
##  6  2013     1     3     1839           1700        99     2056
##  7  2013     1     3     1850           1745        65     2148
##  8  2013     1     3     1923           1815        68     2036
##  9  2013     1     3     1941           1759       102     2246
## 10  2013     1     3     1950           1845        65     2228
## # ... with 2,064 more rows, and 12 more variables: sched_arr_time <int>,
## #   arr_delay <dbl>, carrier <chr>, flight <int>, tailnum <chr>,
## #   origin <chr>, dest <chr>, air_time <dbl>, distance <dbl>, hour <dbl>,
## #   minute <dbl>, time_hour <dttm>

Equivalent solution:

filter(flights, (arr_delay-dep_delay)<=-30 & dep_delay>=60)

1.7. departed between midnight and 6am (inclusive)

filter(flights, dep_time>=0 & dep_time<=600)

## # A tibble: 9,344 x 19
##     year month   day dep_time sched_dep_time dep_delay arr_time
##    <int> <int> <int>    <int>          <int>     <dbl>    <int>
##  1  2013     1     1      517            515         2      830
##  2  2013     1     1      533            529         4      850
##  3  2013     1     1      542            540         2      923
##  4  2013     1     1      544            545        -1     1004
##  5  2013     1     1      554            600        -6      812
##  6  2013     1     1      554            558        -4      740
##  7  2013     1     1      555            600        -5      913
##  8  2013     1     1      557            600        -3      709
##  9  2013     1     1      557            600        -3      838
## 10  2013     1     1      558            600        -2      753
## # ... with 9,334 more rows, and 12 more variables: sched_arr_time <int>,
## #   arr_delay <dbl>, carrier <chr>, flight <int>, tailnum <chr>,
## #   origin <chr>, dest <chr>, air_time <dbl>, distance <dbl>, hour <dbl>,
## #   minute <dbl>, time_hour <dttm>

filter(flights, dep_time>=0, dep_time<=600)

## # A tibble: 9,344 x 19
##     year month   day dep_time sched_dep_time dep_delay arr_time
##    <int> <int> <int>    <int>          <int>     <dbl>    <int>
##  1  2013     1     1      517            515         2      830
##  2  2013     1     1      533            529         4      850
##  3  2013     1     1      542            540         2      923
##  4  2013     1     1      544            545        -1     1004
##  5  2013     1     1      554            600        -6      812
##  6  2013     1     1      554            558        -4      740
##  7  2013     1     1      555            600        -5      913
##  8  2013     1     1      557            600        -3      709
##  9  2013     1     1      557            600        -3      838
## 10  2013     1     1      558            600        -2      753
## # ... with 9,334 more rows, and 12 more variables: sched_arr_time <int>,
## #   arr_delay <dbl>, carrier <chr>, flight <int>, tailnum <chr>,
## #   origin <chr>, dest <chr>, air_time <dbl>, distance <dbl>, hour <dbl>,
## #   minute <dbl>, time_hour <dttm>
2. Another useful dplyr filtering helper is between(). What does it do? Can you use it to simplify the code needed to answer the previous challenges?

This is a shortcut for x >= left & x <= right

solving 1.7. using between:

filter(flights, between(dep_time, 0, 600))

3. How many flights have a missing dep_time? What other variables are missing? What might these rows represent?

(key question)

filter(flights,is.na(dep_time))

## # A tibble: 8,255 x 19
##     year month   day dep_time sched_dep_time dep_delay arr_time
##    <int> <int> <int>    <int>          <int>     <dbl>    <int>
##  1  2013     1     1       NA           1630        NA       NA
##  2  2013     1     1       NA           1935        NA       NA
##  3  2013     1     1       NA           1500        NA       NA
##  4  2013     1     1       NA            600        NA       NA
##  5  2013     1     2       NA           1540        NA       NA
##  6  2013     1     2       NA           1620        NA       NA
##  7  2013     1     2       NA           1355        NA       NA
##  8  2013     1     2       NA           1420        NA       NA
##  9  2013     1     2       NA           1321        NA       NA
## 10  2013     1     2       NA           1545        NA       NA
## # ... with 8,245 more rows, and 12 more variables: sched_arr_time <int>,
## #   arr_delay <dbl>, carrier <chr>, flight <int>, tailnum <chr>,
## #   origin <chr>, dest <chr>, air_time <dbl>, distance <dbl>, hour <dbl>,
## #   minute <dbl>, time_hour <dttm>
…
Inf*0

## [1] NaN

See this article for more details: https://math.stackexchange.com/questions/28940/why-is-infinity-multiplied-by-zero-not-an-easy-zero-answer .

##5.3: Arrange rows

5.3.1.

1. Sort out all missing values to start

arrange(flights, desc(is.na(dep_time)))

## # A tibble: 336,776 x 19
##     year month   day dep_time sched_dep_time dep_delay arr_time
##    <int> <int> <int>    <int>          <int>     <dbl>    <int>
##  1  2013     1     1       NA           1630        NA       NA
##  2  2013     1     1       NA           1935        NA       NA
##  3  2013     1     1       NA           1500        NA       NA
##  4  2013     1     1       NA            600        NA       NA
##  5  2013     1     2       NA           1540        NA       NA
##  6  2013     1     2       NA           1620        NA       NA
##  7  2013     1     2       NA           1355        NA       NA
##  8  2013     1     2       NA           1420        NA       NA
##  9  2013     1     2       NA           1321        NA       NA
## 10  2013     1     2       NA           1545        NA       NA
## # ... with 336,766 more rows, and 12 more variables: sched_arr_time <int>,
## #   arr_delay <dbl>, carrier <chr>, flight <int>, tailnum <chr>,
## #   origin <chr>, dest <chr>, air_time <dbl>, distance <dbl>, hour <dbl>,
## #   minute <dbl>, time_hour <dttm>

arrange(flights, desc(is.na(arr_delay)))

## # A tibble: 336,776 x 19
##     year month   day dep_time sched_dep_time dep_delay arr_time
##    <int> <int> <int>    <int>          <int>     <dbl>    <int>
##  1  2013     1     1     1525           1530        -5     1934
##  2  2013     1     1     1528           1459        29     2002
##  3  2013     1     1     1740           1745        -5     2158
##  4  2013     1     1     1807           1738        29     2251
##  5  2013     1     1     1939           1840        59       29
##  6  2013     1     1     1952           1930        22     2358
##  7  2013     1     1     2016           1930        46       NA
##  8  2013     1     1       NA           1630        NA       NA
##  9  2013     1     1       NA           1935        NA       NA
## 10  2013     1     1       NA           1500        NA       NA
## # ... with 336,766 more rows, and 12 more variables: sched_arr_time <int>,
## #   arr_delay <dbl>, carrier <chr>, flight <int>, tailnum <chr>,
## #   origin <chr>, dest <chr>, air_time <dbl>, distance <dbl>, hour <dbl>,
## #   minute <dbl>, time_hour <dttm>
…
count(flights, is.na(dep_delay), is.na(arr_delay))

## # A tibble: 3 x 3
##   `is.na(dep_delay)` `is.na(arr_delay)`      n
##   <lgl>              <lgl>               <int>
## 1 FALSE              FALSE              327346
## 2 FALSE              TRUE                 1175
## 3 TRUE               TRUE                 8255

2. Find most delayed departures

arrange(flights, desc(dep_delay)) %>% 
  select(dep_delay)

## # A tibble: 336,776 x 1
##    dep_delay
##        <dbl>
##  1      1301
##  2      1137
##  3      1126
##  4      1014
##  5      1005
##  6       960
##  7       911
##  8       899
##  9       898
## 10       896
## # ... with 336,766 more rows
…
#method 1
select(flights, vars)

#method 2, probably
indexes <- which(names(flights) %in% vars)
select(flights, indexes)

#method 3
select(flights, contains("_time"), contains("_delay"), -contains("sched"), -contains("air"))

#method 4
select(flights, starts_with("dep"), starts_with("arr")) %>% 
  select(ends_with("time"), ends_with("delay"))

## # A tibble: 336,776 x 4
##    dep_time arr_time dep_delay arr_delay
##       <int>    <int>     <dbl>     <dbl>
##  1      517      830         2        11
##  2      533      850         4        20
##  3      542      923         2        33
##  4      544     1004        -1       -18
##  5      554      812        -6       -25
##  6      554      740        -4        12
##  7      555      913        -5        19
##  8      557      709        -3       -14
##  9      557      838        -3        -8
## 10      558      753        -2         8
## # ... with 336,766 more rows
2. What happens if you include the name of a variable multiple times in a select() call?

It only shows-up once.

3. What does the one_of() function do? Why might it be helpful in conjunction with this vector?

vars <- c("year", "month", "day", "dep_delay", "arr_delay")

Can be used to select multiple variables with a character vector or to negate selecting certain variables.

4. Does the result of running the following code surprise you? How do the select helpers deal with case by default? How can you change that default?

select(flights, contains("TIME"))

## # A tibble: 336,776 x 6
##    dep_time sched_dep_time arr_time sched_arr_time air_time
##       <int>          <int>    <int>          <int>    <dbl>
##  1      517            515      830            819      227
##  2      533            529      850            830      227
##  3      542            540      923            850      160
##  4      544            545     1004           1022      183
##  5      554            600      812            837      116
##  6      554            558      740            728      150
##  7      555            600      913            854      158
##  8      557            600      709            723       53
##  9      557            600      838            846      140
## 10      558            600      753            745      138
## # ... with 336,766 more rows, and 1 more variable: time_hour <dttm>
…
5.6.7.

1. Brainstorm at least 5 different ways to assess the typical delay characteristics of a group of flights. (key question)

90th percentile for delays for flights by destination

flights %>% 
  group_by(dest) %>% 
  summarise(delay.90 = quantile(arr_delay, 0.90, na.rm = TRUE)) %>% 
  arrange(desc(delay.90))

## # A tibble: 105 x 2
##    dest  delay.90
##    <chr>    <dbl>
##  1 TUL      126  
##  2 TYS      109. 
##  3 CAE      107  
##  4 DSM      103  
##  5 OKC       99.6
##  6 BHM       99.2
##  7 RIC       90  
##  8 PVD       81.3
##  9 CRW       80.8
## 10 CVG       80  
## # ... with 95 more rows
…
1.2 A flight is always 10 minutes late.

flights %>% 
  group_by(flight) %>% 
  summarise(late.10 = sum(arr_delay >= 10)/n()) %>% 
  ungroup() %>% 
  filter(late.10 == 1)

## # A tibble: 93 x 2
##    flight late.10
##     <int>   <dbl>
##  1     94       1
##  2    730       1
##  3    974       1
##  4   1084       1
##  5   1226       1
##  6   1510       1
##  7   1514       1
##  8   1859       1
##  9   1868       1
## 10   2101       1
## # ... with 83 more rows
…
Looks like this exact proportion doesn’t happen. But let’s look at those flights that have the greatest differences in proportion on-time vs. 2 hours late while still having values in both categories4.

flights %>% 
  group_by(flight) %>% 
  summarise(ontime = sum(arr_delay <= 0, na.rm = TRUE)/n(),
            late.120 = sum(arr_delay >= 120, na.rm = TRUE)/n(),
            n = n()) %>%
  ungroup() %>% 
  filter_at(c("ontime", "late.120"), all_vars(. != 0 & . != 1)) %>% 
  mutate(max_dist = abs(ontime - late.120)) %>% 
  arrange(desc(max_dist))

## # A tibble: 2,098 x 5
##    flight ontime late.120     n max_dist
##     <int>  <dbl>    <dbl> <int>    <dbl>
##  1   5288  0.927  0.0244     41    0.902
##  2   2085  0.901  0.00658   152    0.895
##  3   2174  0.914  0.0286     35    0.886
##  4   2243  0.9    0.0167    120    0.883
##  5   2180  0.889  0.0131    153    0.876
##  6   2118  0.867  0.00699   143    0.860
##  7   1167  0.864  0.00662   302    0.858
##  8   3613  0.886  0.0286     35    0.857
##  9   1772  0.891  0.0364     55    0.855
## 10   1157  0.847  0.00667   150    0.84 
## # ... with 2,088 more rows
…
Arrival delay.

3. Come up with another approach that will give you the same output as not_cancelled %>% count(dest) and not_cancelled %>% count(tailnum, wt = distance) (without using count()).

(key question)

not_cancelled <- flights %>% 
  filter(!is.na(dep_delay), !is.na(arr_delay))

not_cancelled %>% 
  group_by(dest) %>% 
  summarise(n = n())

## # A tibble: 104 x 2
##    dest      n
##    <chr> <int>
##  1 ABQ     254
##  2 ACK     264
##  3 ALB     418
##  4 ANC       8
##  5 ATL   16837
##  6 AUS    2411
##  7 AVL     261
##  8 BDL     412
##  9 BGR     358
## 10 BHM     269
## # ... with 94 more rows

not_cancelled %>% 
  group_by(tailnum) %>% 
  summarise(n = sum(distance))

## # A tibble: 4,037 x 2
##    tailnum      n
##    <chr>    <dbl>
##  1 D942DN    3418
##  2 N0EGMQ  239143
##  3 N10156  109664
##  4 N102UW   25722
##  5 N103US   24619
##  6 N104UW   24616
##  7 N10575  139903
##  8 N105UW   23618
##  9 N107US   21677
## 10 N108UW   32070
## # ... with 4,027 more rows
…
Below we look at destinations and the carrier that has the highest proportion of flights from one of the NYC destinations (ignoring for specific origin – JFK, LGA, etc. are not seperated).

flights %>% 
  group_by(dest, carrier) %>% 
  summarise(n = n()) %>% 
  mutate(perc = n / sum(n)) %>% 
  group_by(dest) %>% 
  mutate(rank = min_rank(-perc)) %>%
  arrange(carrier, rank) %>% 
  filter(rank == 1) %>% 
  select(dest, highest_carrier = carrier, highest_perc = perc, n_total = n) %>% 
  arrange(desc(n_total))

## # A tibble: 105 x 4
## # Groups:   dest [105]
##    dest  highest_carrier highest_perc n_total
##    <chr> <chr>                  <dbl>   <int>
##  1 ATL   DL                     0.614   10571
##  2 CLT   US                     0.614    8632
##  3 DFW   AA                     0.831    7257
##  4 MIA   AA                     0.617    7234
##  5 ORD   UA                     0.404    6984
##  6 IAH   UA                     0.962    6924
##  7 SFO   UA                     0.512    6819
##  8 FLL   B6                     0.544    6563
##  9 MCO   B6                     0.460    6472
## 10 LAX   UA                     0.360    5823
## # ... with 95 more rows
…
