Yet another study guide for ‘R for Data Science’
…
What word has the highest number of vowels? What word has the highest
proportion of vowels? (Hint: what is the denominator?)

vowel_counts <- tibble(words = words, 
                       n_string = str_length(words),
                       n_vowel = str_count(words, vowels),
                       prop_vowel = n_vowel / n_string)

‘Experience’ has the most vowels

vowel_counts %>% 
  arrange(desc(n_vowel))

## # A tibble: 980 x 4
##    words      n_string n_vowel prop_vowel
##    <chr>         <int>   <int>      <dbl>
##  1 experience       10       4      0.4  
##  2 individual       10       3      0.3  
##  3 achieve           7       2      0.286
##  4 actual            6       2      0.333
##  5 afternoon         9       2      0.222
##  6 against           7       2      0.286
##  7 already           7       2      0.286
##  8 america           7       2      0.286
##  9 benefit           7       2      0.286
## 10 choose            6       2      0.333
## # ... with 970 more rows

‘a’ has the highest proportion

vowel_counts %>% 
  arrange(desc(prop_vowel))

## # A tibble: 980 x 4
##    words n_string n_vowel prop_vowel
##    <chr>    <int>   <int>      <dbl>
##  1 a            1       1      1    
##  2 too          3       2      0.667
##  3 wee          3       2      0.667
##  4 feed         4       2      0.5  
##  5 in           2       1      0.5  
##  6 look         4       2      0.5  
##  7 need         4       2      0.5  
##  8 room         4       2      0.5  
##  9 so           2       1      0.5  
## 10 soon         4       2      0.5  
## # ... with 970 more rows
…
# see stringr cheatsheet: "(?<![:alpha:])" means not preceded by
re <- str_c("(", "(?<![:alpha:])", "(", nums_c, "))", " ", "([^ \\.]+)", 
            sep = "")

sentences %>% 
  str_subset(regex(re, ignore_case = TRUE)) %>% 
  str_extract_all(regex(re, ignore_case = TRUE)) %>% 
  unlist() %>% 
  tibble::enframe(name = NULL) %>% 
  separate(col = "value", 
           into = c("num", "following"),
           remove = FALSE)

## # A tibble: 30 x 3
##    value       num   following
##    <chr>       <chr> <chr>    
##  1 Four hours  Four  hours    
##  2 Two blue    Two   blue     
##  3 seven books seven books    
##  4 two met     two   met      
##  5 two factors two   factors  
##  6 three lists three lists    
##  7 Two plus    Two   plus     
##  8 seven is    seven is       
##  9 two when    two   when     
## 10 Eight miles Eight miles    
## # ... with 20 more rows
…
14.4.2.3

One way of doing this using iteration methods:

vowels <- c("a","e","i","o","u")

tibble(vowels = vowels, words = list(words)) %>% 
  mutate(detect_vowels = purrr::map2(words, vowels, str_detect)) %>% 
  spread(key = vowels, value = detect_vowels) %>% 
  unnest() %>% 
  mutate(unique_vowels = rowSums(.[2:6])) %>% 
  arrange(desc(unique_vowels))

## # A tibble: 980 x 7
##    words       a     e     i     o     u     unique_vowels
##    <chr>       <lgl> <lgl> <lgl> <lgl> <lgl>         <dbl>
##  1 absolute    TRUE  TRUE  FALSE TRUE  TRUE              4
##  2 appropriate TRUE  TRUE  TRUE  TRUE  FALSE             4
##  3 associate   TRUE  TRUE  TRUE  TRUE  FALSE             4
##  4 authority   TRUE  FALSE TRUE  TRUE  TRUE              4
##  5 colleague   TRUE  TRUE  FALSE TRUE  TRUE              4
##  6 continue    FALSE TRUE  TRUE  TRUE  TRUE              4
##  7 encourage   TRUE  TRUE  FALSE TRUE  TRUE              4
##  8 introduce   FALSE TRUE  TRUE  TRUE  TRUE              4
##  9 organize    TRUE  TRUE  TRUE  TRUE  FALSE             4
## 10 previous    FALSE TRUE  TRUE  TRUE  TRUE              4
## # ... with 970 more rows
…
