…
1.  Compare `dep_time`, `sched_dep_time` and `dep_delay`. Are they consistent?
    Explain your findings.

    
    ```r
    flights_dt %>%
      mutate(dep_delay_check = (dep_time - sched_dep_time) / dminutes(1),
             same = dep_delay == dep_delay_check,
             difference = dep_delay_check - dep_delay) %>%
      filter(abs(difference) > 0)
    ```
    
    ```
    ## # A tibble: 1,205 x 12
    ##    origin dest  dep_delay arr_delay dep_time            sched_dep_time     
    ##    <chr>  <chr>     <dbl>     <dbl> <dttm>              <dttm>             
    ##  1 JFK    BWI         853       851 2013-01-01 08:48:00 2013-01-01 18:35:00
    ##  2 JFK    SJU          43        36 2013-01-02 00:42:00 2013-01-02 23:59:00
    ##  3 JFK    SYR         156       154 2013-01-02 01:26:00 2013-01-02 22:50:00
    ##  4 JFK    SJU          33        22 2013-01-03 00:32:00 2013-01-03 23:59:00
    ##  5 JFK    BUF         185       172 2013-01-03 00:50:00 2013-01-03 21:45:00
    ##  6 JFK    BQN         156       143 2013-01-03 02:35:00 2013-01-03 23:59:00
    ##  7 JFK    SJU          26        23 2013-01-04 00:25:00 2013-01-04 23:59:00
    ##  8 JFK    PWM         141       125 2013-01-04 01:06:00 2013-01-04 22:45:00
    ##  9 JFK    PSE          15        18 2013-01-05 00:14:00 2013-01-05 23:59:00
    ## 10 JFK    FLL         127       130 2013-01-05 00:37:00 2013-01-05 22:30:00
    ## # ... with 1,195 more rows, and 6 more variables: arr_time <dttm>,
    ## #   sched_arr_time <dttm>, air_time <dbl>, dep_delay_check <dbl>,
    ## #   same <lgl>, difference <dbl>
    ```
    
    * They are except in the case when it goes over a day, the day is not pushed forward so it counts it as being 24 hours off

1.  Compare `air_time` with the duration between the departure and arrival.
    Explain your findings. (Hint: consider the location of the airport.)
    
    
    ```r
    flights_dt %>% 
      mutate(air_time_check = (arr_time - dep_time) / dminutes(1)) %>%
      select(air_time_check, air_time, dep_time, arr_time, everything())
    ```
    
    ```
    ## # A tibble: 328,063 x 10
    ##    air_time_check air_time dep_time            arr_time            origin
    ##             <dbl>    <dbl> <dttm>              <dttm>              <chr> 
    ##  1            193      227 2013-01-01 05:17:00 2013-01-01 08:30:00 EWR   
    ##  2            197      227 2013-01-01 05:33:00 2013-01-01 08:50:00 LGA   
    ##  3            221      160 2013-01-01 05:42:00 2013-01-01 09:23:00 JFK   
    ##  4            260      183 2013-01-01 05:44:00 2013-01-01 10:04:00 JFK   
    ##  5            138      116 2013-01-01 05:54:00 2013-01-01 08:12:00 LGA   
    ##  6            106      150 2013-01-01 05:54:00 2013-01-01 07:40:00 EWR   
    ##  7            198      158 2013-01-01 05:55:00 2013-01-01 09:13:00 EWR   
    ##  8             72       53 2013-01-01 05:57:00 2013-01-01 07:09:00 LGA   
    ##  9            161      140 2013-01-01 05:57:00 2013-01-01 08:38:00 JFK   
    ## 10            115      138 2013-01-01 05:58:00 2013-01-01 07:53:00 LGA   
    ## # ... with 328,053 more rows, and 5 more variables: dest <chr>,
    ## #   dep_delay <dbl>, arr_delay <dbl>, sched_dep_time <dttm>,
    ## #   sched_arr_time <dttm>
    ```
    
    * Initial check is off, so need to take into account the time-zone and difference from NYC, so join timezone document
    
    
    ```r
    flights_dt %>% 
      left_join(select(nycflights13::airports, dest = faa, tz), by = "dest") %>% 
      mutate(arr_time_new = arr_time - dhours(tz + 5)) %>% 
      mutate(air_time_tz = (arr_time_new - dep_time) / dminutes(1),
             diff_Airtime = air_time_tz - air_time) %>% 
      select( origin, dest, tz, contains("time"), -(contains("sched")))
    ```
    
    ```
    ## # A tibble: 328,063 x 9
    ##    origin dest     tz dep_time            arr_time            air_time
    ##    <chr>  <chr> <dbl> <dttm>              <dttm>                 <dbl>
    ##  1 EWR    IAH      -6 2013-01-01 05:17:00 2013-01-01 08:30:00      227
    ##  2 LGA    IAH      -6 2013-01-01 05:33:00 2013-01-01 08:50:00      227
    ##  3 JFK    MIA      -5 2013-01-01 05:42:00 2013-01-01 09:23:00      160
    ##  4 JFK    BQN      NA 2013-01-01 05:44:00 2013-01-01 10:04:00      183
    ##  5 LGA    ATL      -5 2013-01-01 05:54:00 2013-01-01 08:12:00      116
    ##  6 EWR    ORD      -6 2013-01-01 05:54:00 2013-01-01 07:40:00      150
    ##  7 EWR    FLL      -5 2013-01-01 05:55:00 2013-01-01 09:13:00      158
    ##  8 LGA    IAD      -5 2013-01-01 05:57:00 2013-01-01 07:09:00       53
    ##  9 JFK    MCO      -5 2013-01-01 05:57:00 2013-01-01 08:38:00      140
    ## 10 LGA    ORD      -6 2013-01-01 05:58:00 2013-01-01 07:53:00      138
    ## # ... with 328,053 more rows, and 3 more variables: arr_time_new <dttm>,
    ## #   air_time_tz <dbl>, diff_Airtime <dbl>
    ```
…
<img src="16-dates-and-times_files/figure-html/unnamed-chunk-27-1.png" width="672" />

### 16.3.4.3

* Perhaps these are flights where landed in different location...

```r
flights_dt %>% 
  mutate(arr_delay_test = (arr_time - sched_arr_time) / dminutes(1)) %>% 
  select( origin, dest, dep_delay, arr_delay, arr_delay_test, contains("time")) %>% 
  filter(is.na(arr_delay))
```

```
## # A tibble: 717 x 10
##    origin dest  dep_delay arr_delay arr_delay_test dep_time           
##    <chr>  <chr>     <dbl>     <dbl>          <dbl> <dttm>             
##  1 LGA    XNA          -5        NA             89 2013-01-01 15:25:00
##  2 EWR    STL          29        NA            195 2013-01-01 15:28:00
##  3 LGA    XNA          -5        NA             98 2013-01-01 17:40:00
##  4 EWR    SAN          29        NA            108 2013-01-01 18:07:00
##  5 JFK    DFW          59        NA          -1282 2013-01-01 19:39:00
##  6 EWR    TUL          22        NA            111 2013-01-01 19:52:00
##  7 EWR    XNA          43        NA            148 2013-01-02 09:05:00
##  8 LGA    GRR         120        NA            179 2013-01-02 11:25:00
##  9 JFK    DFW           8        NA            102 2013-01-02 18:48:00
## 10 EWR    MCI          85        NA            177 2013-01-02 18:49:00
## # ... with 707 more rows, and 4 more variables: sched_dep_time <dttm>,
## #   arr_time <dttm>, sched_arr_time <dttm>, air_time <dbl>
```
…
