…
    dir_examp <- dir("ch21_csvs_example", 
        pattern = "csv$",
        full.names = TRUE)
    
    names_appended <- append_csvs(dir_examp)
    names_appended
    ```
    
    ```
    ## # A tibble: 3,514 x 6
    ##     year sex   name      n   prop first_letter
    ##    <dbl> <chr> <chr> <int>  <dbl> <chr>       
    ##  1  1880 F     Anna   2604 0.0267 A           
    ##  2  1881 F     Anna   2698 0.0273 A           
    ##  3  1882 F     Anna   3143 0.0272 A           
    ##  4  1883 F     Anna   3306 0.0275 A           
    ##  5  1884 F     Anna   3860 0.0281 A           
    ##  6  1885 F     Anna   3994 0.0281 A           
    ##  7  1886 F     Anna   4283 0.0279 A           
    ##  8  1887 F     Anna   4227 0.0272 A           
    ##  9  1888 F     Anna   4982 0.0263 A           
    ## 10  1889 F     Anna   5062 0.0268 A           
    ## # ... with 3,504 more rows
    ```
…
* below is one method for passing multiple, more complex arguments through keep, though you can also use function shortcuts (`~`) in `keep` and `discard`
    
    ```r
    ##how to pass multiple functions through keep?
    #can use map to subset columns by multiple criteria and then subset at end
    flights %>%
      purrr::map(is.na) %>% 
      purrr::map_dbl(sum) %>% 
      purrr::map_lgl(~.>10) %>% 
      flights[.]
    ```
    
    ```
    ## # A tibble: 336,776 x 6
    ##    dep_time dep_delay arr_time arr_delay tailnum air_time
    ##       <int>     <dbl>    <int>     <dbl> <chr>      <dbl>
    ##  1      517         2      830        11 N14228       227
    ##  2      533         4      850        20 N24211       227
    ##  3      542         2      923        33 N619AA       160
    ##  4      544        -1     1004       -18 N804JB       183
    ##  5      554        -6      812       -25 N668DN       116
    ##  6      554        -4      740        12 N39463       150
    ##  7      555        -5      913        19 N516JB       158
    ##  8      557        -3      709       -14 N829AS        53
    ##  9      557        -3      838        -8 N593JB       140
    ## 10      558        -2      753         8 N3ALAA       138
    ## # ... with 336,766 more rows
    ```
…
```r
map_df(iris, ~.x*2)
```

```
## Warning in Ops.factor(.x, 2): '*' not meaningful for factors
```

```
## # A tibble: 150 x 5
##    Sepal.Length Sepal.Width Petal.Length Petal.Width Species
##           <dbl>       <dbl>        <dbl>       <dbl> <lgl>  
##  1         10.2         7            2.8         0.4 NA     
##  2          9.8         6            2.8         0.4 NA     
##  3          9.4         6.4          2.6         0.4 NA     
##  4          9.2         6.2          3           0.4 NA     
##  5         10           7.2          2.8         0.4 NA     
##  6         10.8         7.8          3.4         0.8 NA     
##  7          9.2         6.8          2.8         0.6 NA     
##  8         10           6.8          3           0.4 NA     
##  9          8.8         5.8          2.8         0.4 NA     
## 10          9.8         6.2          3           0.2 NA     
## # ... with 140 more rows
```
…
