…
    
1.  `add_predictions()` is paired with `gather_predictions()` and 
    `spread_predictions()`. How do these three functions differ?

    * `spread_predictions()` adds a new `pred` for each model included
    * `gather_predictions()` adds 2 columns `model` and `pred` for each model and repeats the input rows for each model (seems like it would work well with facets)
        
    
    ```r
    sim1 %>% 
      spread_predictions(sim1_mod, sim1_mod_loess)
    ```
    
    ```
    ## # A tibble: 30 x 4
    ##        x     y sim1_mod sim1_mod_loess
    ##    <int> <dbl>    <dbl>          <dbl>
    ##  1     1  4.20     6.27           5.34
    ##  2     1  7.51     6.27           5.34
    ##  3     1  2.13     6.27           5.34
    ##  4     2  8.99     8.32           8.27
    ##  5     2 10.2      8.32           8.27
    ##  6     2 11.3      8.32           8.27
    ##  7     3  7.36    10.4           10.8 
    ##  8     3 10.5     10.4           10.8 
    ##  9     3 10.5     10.4           10.8 
    ## 10     4 12.4     12.4           12.8 
    ## # ... with 20 more rows
    ```
    
    ```r
    #How can I add a prefix when using spread_predictions() ? -- could use the method below
    sim1 %>% 
      gather_predictions(sim1_mod, sim1_mod_loess) %>%
      mutate(model = str_c(model, "_pred")) %>% 
      spread(key = model, value = pred)
    ```
    
    ```
    ## # A tibble: 30 x 4
    ##        x     y sim1_mod_loess_pred sim1_mod_pred
    ##    <int> <dbl>               <dbl>         <dbl>
    ##  1     1  2.13                5.34          6.27
    ##  2     1  4.20                5.34          6.27
    ##  3     1  7.51                5.34          6.27
    ##  4     2  8.99                8.27          8.32
    ##  5     2 10.2                 8.27          8.32
    ##  6     2 11.3                 8.27          8.32
    ##  7     3  7.36               10.8          10.4 
    ##  8     3 10.5                10.8          10.4 
    ##  9     3 10.5                10.8          10.4 
    ## 10     4 11.9                12.8          12.4 
    ## # ... with 20 more rows
    ```
…
    * you have an ANOVA analysis, one of the variables takes on the value of the intercept, the others all have the value of the intercept added to them.
      
1.  Use `model_matrix()` to explore the equations generated for the models
    I fit to `sim3` and `sim4`. Why is `*` a good shorthand for interaction?
    
    ```r
    model_matrix(y ~ x1*x2, data = sim3)
    ```
    
    ```
    ## # A tibble: 120 x 8
    ##    `(Intercept)`    x1   x2b   x2c   x2d `x1:x2b` `x1:x2c` `x1:x2d`
    ##            <dbl> <dbl> <dbl> <dbl> <dbl>    <dbl>    <dbl>    <dbl>
    ##  1             1     1     0     0     0        0        0        0
    ##  2             1     1     0     0     0        0        0        0
    ##  3             1     1     0     0     0        0        0        0
    ##  4             1     1     1     0     0        1        0        0
    ##  5             1     1     1     0     0        1        0        0
    ##  6             1     1     1     0     0        1        0        0
    ##  7             1     1     0     1     0        0        1        0
    ##  8             1     1     0     1     0        0        1        0
    ##  9             1     1     0     1     0        0        1        0
    ## 10             1     1     0     0     1        0        0        1
    ## # ... with 110 more rows
    ```
    
    ```r
    model_matrix(y ~ x1*x2, data = sim4)
    ```
    
    ```
    ## # A tibble: 300 x 4
    ##    `(Intercept)`    x1     x2 `x1:x2`
    ##            <dbl> <dbl>  <dbl>   <dbl>
    ##  1             1    -1 -1       1    
    ##  2             1    -1 -1       1    
    ##  3             1    -1 -1       1    
    ##  4             1    -1 -0.778   0.778
    ##  5             1    -1 -0.778   0.778
    ##  6             1    -1 -0.778   0.778
    ##  7             1    -1 -0.556   0.556
    ##  8             1    -1 -0.556   0.556
    ##  9             1    -1 -0.556   0.556
    ## 10             1    -1 -0.333   0.333
    ## # ... with 290 more rows
    ```
…
