Ch. 24: Model building | Yet another ‘R for Data Science’ study guide
…
# This returns each day and whether it occurred near a holiday
near_holiday <- map(near_holidays$Holiday_Period, ~(seq.Date(ymd("2013-01-01"), ymd("2013-12-31"), by = "day") %within% .x)) %>% 
  transpose() %>% 
  map_lgl(any) %>% 
  as_tibble() %>% 
  rename(NearHoliday = value) %>% 
  mutate(date = seq.Date(ymd("2013-01-01"), ymd("2013-12-31"), by = "day"))

near_holiday

## # A tibble: 365 x 2
##    NearHoliday date      
##    <lgl>       <date>    
##  1 TRUE        2013-01-01
##  2 FALSE       2013-01-02
##  3 FALSE       2013-01-03
##  4 FALSE       2013-01-04
##  5 FALSE       2013-01-05
##  6 FALSE       2013-01-06
##  7 FALSE       2013-01-07
##  8 FALSE       2013-01-08
##  9 FALSE       2013-01-09
## 10 FALSE       2013-01-10
## # ... with 355 more rows
…
