Yet another study guide for ‘R for Data Science’
…
country_model <- function(df) {
  lm(lifeExp ~ year, data = df)
}

Want to apply this function over every data frame, the dataframes are in a list, so do this by:

by_country2 <- by_country %>% 
  mutate(model = purrr::map(data, country_model))

Advantage with keeping things in the dataframe is that when you filter, or move things around, everything stays in sync, as do new summary values you might add.

by_country2 %>% 
  arrange(continent, country)

## # A tibble: 142 x 4
##    country                  continent data              model   
##    <fct>                    <fct>     <list>            <list>  
##  1 Algeria                  Africa    <tibble [12 x 4]> <S3: lm>
##  2 Angola                   Africa    <tibble [12 x 4]> <S3: lm>
##  3 Benin                    Africa    <tibble [12 x 4]> <S3: lm>
##  4 Botswana                 Africa    <tibble [12 x 4]> <S3: lm>
##  5 Burkina Faso             Africa    <tibble [12 x 4]> <S3: lm>
##  6 Burundi                  Africa    <tibble [12 x 4]> <S3: lm>
##  7 Cameroon                 Africa    <tibble [12 x 4]> <S3: lm>
##  8 Central African Republic Africa    <tibble [12 x 4]> <S3: lm>
##  9 Chad                     Africa    <tibble [12 x 4]> <S3: lm>
## 10 Comoros                  Africa    <tibble [12 x 4]> <S3: lm>
## # ... with 132 more rows

by_country2 %>% 
  mutate(summaries = purrr::map(model, summary)) %>% 
  mutate(r_squared = purrr::map2_dbl(model, data, rsquare))

## # A tibble: 142 x 6
##    country     continent data             model   summaries       r_squared
##    <fct>       <fct>     <list>           <list>  <list>              <dbl>
##  1 Afghanistan Asia      <tibble [12 x 4~ <S3: l~ <S3: summary.l~     0.948
##  2 Albania     Europe    <tibble [12 x 4~ <S3: l~ <S3: summary.l~     0.911
##  3 Algeria     Africa    <tibble [12 x 4~ <S3: l~ <S3: summary.l~     0.985
##  4 Angola      Africa    <tibble [12 x 4~ <S3: l~ <S3: summary.l~     0.888
##  5 Argentina   Americas  <tibble [12 x 4~ <S3: l~ <S3: summary.l~     0.996
##  6 Australia   Oceania   <tibble [12 x 4~ <S3: l~ <S3: summary.l~     0.980
##  7 Austria     Europe    <tibble [12 x 4~ <S3: l~ <S3: summary.l~     0.992
##  8 Bahrain     Asia      <tibble [12 x 4~ <S3: l~ <S3: summary.l~     0.967
##  9 Bangladesh  Asia      <tibble [12 x 4~ <S3: l~ <S3: summary.l~     0.989
## 10 Belgium     Europe    <tibble [12 x 4~ <S3: l~ <S3: summary.l~     0.995
## # ... with 132 more rows

unnesting, dd another dataframe with the residuals included and then unnest

by_country3 <- by_country2 %>%
  mutate(resids = purrr::map2(data, model, add_residuals))

resids <- by_country3 %>% 
  unnest(resids)

resids

## # A tibble: 1,704 x 7
##    country     continent  year lifeExp      pop gdpPercap   resid
##    <fct>       <fct>     <int>   <dbl>    <int>     <dbl>   <dbl>
##  1 Afghanistan Asia       1952    28.8  8425333      779. -1.11  
##  2 Afghanistan Asia       1957    30.3  9240934      821. -0.952 
##  3 Afghanistan Asia       1962    32.0 10267083      853. -0.664 
##  4 Afghanistan Asia       1967    34.0 11537966      836. -0.0172
##  5 Afghanistan Asia       1972    36.1 13079460      740.  0.674 
##  6 Afghanistan Asia       1977    38.4 14880372      786.  1.65  
##  7 Afghanistan Asia       1982    39.9 12881816      978.  1.69  
##  8 Afghanistan Asia       1987    40.8 13867957      852.  1.28  
##  9 Afghanistan Asia       1992    41.7 16317921      649.  0.754 
## 10 Afghanistan Asia       1997    41.8 22227415      635. -0.534 
## # ... with 1,694 more rows
…
List-columns for sampling

say you want to sample all the flights on 50 days out of the year. List-cols can be helpful in generating a sample like this:

flights %>% 
  mutate(create_date = make_date(year, month, day)) %>% 
  select(create_date, 5:8) %>% 
  group_by(create_date) %>% 
  nest() %>% 
  sample_n(50) %>% 
  unnest()

## # A tibble: 45,475 x 5
##    create_date sched_dep_time dep_delay arr_time sched_arr_time
##    <date>               <int>     <dbl>    <int>          <int>
##  1 2013-05-02            1905       298      241           2224
##  2 2013-05-02            2015       247      256           2308
##  3 2013-05-02            2359        40      413            345
##  4 2013-05-02            2130       348      541             22
##  5 2013-05-02             500        -7      651            640
##  6 2013-05-02             515        -8      747            811
##  7 2013-05-02             540        -1      850            840
##  8 2013-05-02             545        -6      806            827
##  9 2013-05-02             600       -11      823            850
## 10 2013-05-02             600       -10      732            755
## # ... with 45,465 more rows

The alternative a join, e.g.

flights_samp <- flights %>% 
  mutate(create_date = make_date(year, month, day)) %>% 
  distinct(create_date) %>% 
  sample_n(50)

flights %>% 
  mutate(create_date = make_date(year, month, day)) %>% 
  select(create_date, 5:8) %>% 
  semi_join(flights_samp, by = "create_date")

## # A tibble: 46,037 x 5
##    create_date sched_dep_time dep_delay arr_time sched_arr_time
##    <date>               <int>     <dbl>    <int>          <int>
##  1 2013-01-05            2359        15      503            445
##  2 2013-01-05            2230       127      341            131
##  3 2013-01-05             500        -2      640            650
##  4 2013-01-05             515         1      821            816
##  5 2013-01-05             530         4      829            829
##  6 2013-01-05             540        -3      831            850
##  7 2013-01-05             600        -7      903            903
##  8 2013-01-05             600        -6      739            759
##  9 2013-01-05             600        -5      824            810
## 10 2013-01-05             600        -5      818            837
## # ... with 46,027 more rows
…
