Another set of solutions to ‘R for Data Science’
…
            Another set of solutions to ‘R for Data Science’

Chapter 5 Appendix

The appendix is either extensions upon solutions. Solving the problems using functions we haven’te learned yet, or other random notes / tidbits.

5.1 5.4.1.3.

You actually don’t need one_of for selecting by character vector, more useful is when using it to negate fields by name.

select(flights, -one_of(vars))

## # A tibble: 336,776 x 15
##     year month   day sched_dep_time sched_arr_time carrier flight tailnum
##    <int> <int> <int>          <int>          <int> <chr>    <int> <chr>  
##  1  2013     1     1            515            819 UA        1545 N14228 
##  2  2013     1     1            529            830 UA        1714 N24211 
##  3  2013     1     1            540            850 AA        1141 N619AA 
##  4  2013     1     1            545           1022 B6         725 N804JB 
##  5  2013     1     1            600            837 DL         461 N668DN 
##  6  2013     1     1            558            728 UA        1696 N39463 
##  7  2013     1     1            600            854 B6         507 N516JB 
##  8  2013     1     1            600            723 EV        5708 N829AS 
##  9  2013     1     1            600            846 B6          79 N593JB 
## 10  2013     1     1            600            745 AA         301 N3ALAA 
## # ... with 336,766 more rows, and 7 more variables: origin <chr>,
## #   dest <chr>, air_time <dbl>, distance <dbl>, hour <dbl>, minute <dbl>,
## #   time_hour <dttm>
…
time_dist_mod <- lm(air_time ~ distance, data = flights)

flights %>% 
  select(dest, dep_time, arr_time, air_time, distance) %>% 
  mutate_at(.vars = c("dep_time", "arr_time"), 
            .funs = funs(time_to_mins)) %>% 
  group_by(dest) %>% 
  summarise(air_time = median(air_time, na.rm = TRUE),
            distance = median(distance, na.rm = TRUE)) %>% 
  modelr::add_predictions(time_dist_mod) %>% 
  modelr::add_residuals(time_dist_mod) %>% 
  arrange(desc(abs(resid)))

## # A tibble: 105 x 5
##    dest  air_time distance  pred resid
##    <chr>    <dbl>    <dbl> <dbl> <dbl>
##  1 ANC       414.     3370 443.  -29.0
##  2 HNL       616      4963 644.  -28.4
##  3 BQN       194      1576 217.  -23.2
##  4 SJU       197      1598 220.  -23.0
##  5 PSE       201      1617 222.  -21.4
##  6 STT       203      1623 223.  -20.2
##  7 EGE       253      1726 236.   16.9
##  8 BGR        54       378  66.1 -12.1
##  9 PSP       330.     2378 318.   12.1
## 10 HDN       247      1728 236.   10.6
## # ... with 95 more rows
…
5.4 5.6.7.1.

Below is an extension on using the quantile method, but it is far beyond where we are right now.

For the question 90th percentile for delays for flights by destination we used quantile to output only the 90th percentile of values for each destination. Here, I want to address what if you had wanted to output the delays at multiple values, say, arbitrarily the 25th, 50th, 75th percentiles. One option would be to create a new variable for each value and in each quantile function sepcify 0.25, 0.50, 0.75 respectively.

flights %>% 
  group_by(dest) %>% 
  summarise(delay.25 = quantile(arr_delay, 0.25, na.rm = TRUE),
            delay.50 = quantile(arr_delay, 0.50, na.rm = TRUE),
            delay.75 = quantile(arr_delay, 0.75, na.rm = TRUE))

## # A tibble: 105 x 4
##    dest  delay.25 delay.50 delay.75
##    <chr>    <dbl>    <dbl>    <dbl>
##  1 ABQ      -24       -5.5     22.8
##  2 ACK      -13       -3       10  
##  3 ALB      -17       -4       28  
##  4 ANC      -10.8      1.5     10  
##  5 ATL      -12       -1       16  
##  6 AUS      -19       -5       15  
##  7 AVL      -11       -1       13  
##  8 BDL      -18      -10       14  
##  9 BGR      -21.8     -9       19.8
## 10 BHM      -20       -2       34  
## # ... with 95 more rows
…
## Error: Column `delays` must be length 1 (a summary value), not 3

To make this work you need to make the value a list, so that it will output a single list in each row of the column[This style is covered at the end of the book in the section ‘list-columns’ in iteration.][Also you need your dataframe to be in a tibble form rather than traditional dataframes for list-cols to work]. I am going to create another list-column field of the quantiles I specified.

prob_vals <- seq(from = 0.25, to = 0.75, by = 0.25)

flights_quantiles <- flights %>% 
  group_by(dest) %>% 
  summarise(delays_val = list(quantile(arr_delay, probs = prob_vals, na.rm = TRUE)),
            delays_q = list(c('25th', '50th', '75th')))

flights_quantiles

## # A tibble: 105 x 3
##    dest  delays_val delays_q 
##    <chr> <list>     <list>   
##  1 ABQ   <dbl [3]>  <chr [3]>
##  2 ACK   <dbl [3]>  <chr [3]>
##  3 ALB   <dbl [3]>  <chr [3]>
##  4 ANC   <dbl [3]>  <chr [3]>
##  5 ATL   <dbl [3]>  <chr [3]>
##  6 AUS   <dbl [3]>  <chr [3]>
##  7 AVL   <dbl [3]>  <chr [3]>
##  8 BDL   <dbl [3]>  <chr [3]>
##  9 BGR   <dbl [3]>  <chr [3]>
## 10 BHM   <dbl [3]>  <chr [3]>
## # ... with 95 more rows

To convert these outputs out of the list-col format, I can use the function unnest.

flights_quantiles %>% 
  unnest()

## # A tibble: 315 x 3
##    dest  delays_val delays_q
##    <chr>      <dbl> <chr>   
##  1 ABQ        -24   25th    
##  2 ABQ         -5.5 50th    
##  3 ABQ         22.8 75th    
##  4 ACK        -13   25th    
##  5 ACK         -3   50th    
##  6 ACK         10   75th    
##  7 ALB        -17   25th    
##  8 ALB         -4   50th    
##  9 ALB         28   75th    
## 10 ANC        -10.8 25th    
## # ... with 305 more rows

This will output the values as individual rows, repeating the dest value for the length of the list. If I want to spread the delays_quantile values into seperate columns I can use the spread function that is in the tidying R chapter.

flights_quantiles %>% 
  unnest() %>% 
  spread(key = delays_q, value = delays_val, sep = "_")

## # A tibble: 105 x 4
##    dest  delays_q_25th delays_q_50th delays_q_75th
##    <chr>         <dbl>         <dbl>         <dbl>
##  1 ABQ           -24            -5.5          22.8
##  2 ACK           -13            -3            10  
##  3 ALB           -17            -4            28  
##  4 ANC           -10.8           1.5          10  
##  5 ATL           -12            -1            16  
##  6 AUS           -19            -5            15  
##  7 AVL           -11            -1            13  
##  8 BDL           -18           -10            14  
##  9 BGR           -21.8          -9            19.8
## 10 BHM           -20            -2            34  
## # ... with 95 more rows
…
It can be a hassle naming the values explicitly. quantile’s default probs argument value is 0, 0.25, 0.5, 0.75, 1. Rather than needing to type the delays_q values list(c('0%', '25%', '50%', '75%', '100%')) you could have generated the values of these names dynamically using the map function in the purrr package (see chapter on iteration) to pass the names function over each value in delays_val.

flights_quantiles2 <- flights %>% 
  group_by(dest) %>% 
  summarise(delays_val = list(quantile(arr_delay, na.rm = TRUE)),
            delays_q = list(c('0th', '25th', '50th', '75th', '100th'))) %>% 
  mutate(delays_q2 = purrr::map(delays_val, names))

flights_quantiles2

## # A tibble: 105 x 4
##    dest  delays_val delays_q  delays_q2
##    <chr> <list>     <list>    <list>   
##  1 ABQ   <dbl [5]>  <chr [5]> <chr [5]>
##  2 ACK   <dbl [5]>  <chr [5]> <chr [5]>
##  3 ALB   <dbl [5]>  <chr [5]> <chr [5]>
##  4 ANC   <dbl [5]>  <chr [5]> <chr [5]>
##  5 ATL   <dbl [5]>  <chr [5]> <chr [5]>
##  6 AUS   <dbl [5]>  <chr [5]> <chr [5]>
##  7 AVL   <dbl [5]>  <chr [5]> <chr [5]>
##  8 BDL   <dbl [5]>  <chr [5]> <chr [5]>
##  9 BGR   <dbl [5]>  <chr [5]> <chr [5]>
## 10 BHM   <dbl [5]>  <chr [5]> <chr [5]>
## # ... with 95 more rows

And then let’s unnest the data8.

flights_quantiles2 %>% 
  unnest()

## # A tibble: 525 x 4
##    dest  delays_val delays_q delays_q2
##    <chr>      <dbl> <chr>    <chr>    
##  1 ABQ        -61   0th      0%       
##  2 ABQ        -24   25th     25%      
##  3 ABQ         -5.5 50th     50%      
##  4 ABQ         22.8 75th     75%      
##  5 ABQ        153   100th    100%     
##  6 ACK        -25   0th      0%       
##  7 ACK        -13   25th     25%      
##  8 ACK         -3   50th     50%      
##  9 ACK         10   75th     75%      
## 10 ACK        221   100th    100%     
## # ... with 515 more rows
…
