Another set of solutions to ‘R for Data Science’
…
16.2 16.3.4.3

Perhaps these are flights where landed in different location…

flights_dt %>% 
  mutate(arr_delay_test = (arr_time - sched_arr_time) / dminutes(1)) %>% 
  select( origin, dest, dep_delay, arr_delay, arr_delay_test, contains("time")) %>% 
  filter(is.na(arr_delay))

## # A tibble: 717 x 10
##    origin dest  dep_delay arr_delay arr_delay_test dep_time           
##    <chr>  <chr>     <dbl>     <dbl>          <dbl> <dttm>             
##  1 LGA    XNA          -5        NA             89 2013-01-01 15:25:00
##  2 EWR    STL          29        NA            195 2013-01-01 15:28:00
##  3 LGA    XNA          -5        NA             98 2013-01-01 17:40:00
##  4 EWR    SAN          29        NA            108 2013-01-01 18:07:00
##  5 JFK    DFW          59        NA          -1282 2013-01-01 19:39:00
##  6 EWR    TUL          22        NA            111 2013-01-01 19:52:00
##  7 EWR    XNA          43        NA            148 2013-01-02 09:05:00
##  8 LGA    GRR         120        NA            179 2013-01-02 11:25:00
##  9 JFK    DFW           8        NA            102 2013-01-02 18:48:00
## 10 EWR    MCI          85        NA            177 2013-01-02 18:49:00
## # ... with 707 more rows, and 4 more variables: sched_dep_time <dttm>,
## #   arr_time <dttm>, sched_arr_time <dttm>, air_time <dbl>
…
